{
	"info": {
		"_postman_id": "073f9c67-f2d3-48bc-b554-cacec5f241af",
		"name": "Postman_Songs_Requests",
		"schema": "https://schema.getpostman.com/json/collection/v2.1.0/collection.json"
	},
	"item": [
		{
			"name": "Get List",
			"protocolProfileBehavior": {
				"disableBodyPruning": true
			},
			"request": {
				"method": "GET",
				"header": [
					{
						"key": "Content-Type",
						"name": "Content-Type",
						"value": "application/json",
						"type": "text"
					}
				],
				"body": {
					"mode": "raw",
					"raw": "{\r\n    \"id\": 10,\r\n    \"name\": \"Dark Saturday\",\r\n    \"album\": {\r\n        \"id\": 1,\r\n        \"name\": \"Art of Doubt\",\r\n        \"releaseYear\": 2018\r\n    },\r\n    \"band\": {\r\n        \"id\": 5,\r\n        \"name\": \"Metric\",\r\n        \"foundationYear\": 1998\r\n    },\r\n    \"duration\": 310\r\n}",
					"options": {
						"raw": {
							"language": "json"
						}
					}
				},
				"url": {
					"raw": "http://localhost:3333/song-system/songs",
					"protocol": "http",
					"host": [
						"localhost"
					],
					"port": "3333",
					"path": [
						"song-system",
						"songs"
					]
				}
			},
			"response": []
		},
		{
			"name": "Get Song",
			"protocolProfileBehavior": {
				"disableBodyPruning": true
			},
			"request": {
				"method": "GET",
				"header": [
					{
						"key": "Content-Type",
						"name": "Content-Type",
						"value": "application/json",
						"type": "text"
					}
				],
				"body": {
					"mode": "raw",
					"raw": "{\r\n    \"id\": 10,\r\n    \"name\": \"Dark Saturday\",\r\n    \"album\": {\r\n        \"id\": 1,\r\n        \"name\": \"Art of Doubt\",\r\n        \"releaseYear\": 2018\r\n    },\r\n    \"band\": {\r\n        \"id\": 5,\r\n        \"name\": \"Metric\",\r\n        \"foundationYear\": 1998\r\n    },\r\n    \"duration\": 310\r\n}",
					"options": {
						"raw": {
							"language": "json"
						}
					}
				},
				"url": {
					"raw": "http://localhost:3333/song-system/songs/2",
					"protocol": "http",
					"host": [
						"localhost"
					],
					"port": "3333",
					"path": [
						"song-system",
						"songs",
						"2"
					]
				}
			},
			"response": []
		},
		{
			"name": "Get non-existent Song",
			"protocolProfileBehavior": {
				"disableBodyPruning": true
			},
			"request": {
				"method": "GET",
				"header": [
					{
						"key": "Content-Type",
						"name": "Content-Type",
						"value": "application/json",
						"type": "text"
					}
				],
				"body": {
					"mode": "raw",
					"raw": "{\r\n    \"id\": 10,\r\n    \"name\": \"Dark Saturday\",\r\n    \"album\": {\r\n        \"id\": 1,\r\n        \"name\": \"Art of Doubt\",\r\n        \"releaseYear\": 2018\r\n    },\r\n    \"band\": {\r\n        \"id\": 5,\r\n        \"name\": \"Metric\",\r\n        \"foundationYear\": 1998\r\n    },\r\n    \"duration\": 310\r\n}",
					"options": {
						"raw": {
							"language": "json"
						}
					}
				},
				"url": {
					"raw": "http://localhost:3333/song-system/songs/10",
					"protocol": "http",
					"host": [
						"localhost"
					],
					"port": "3333",
					"path": [
						"song-system",
						"songs",
						"10"
					]
				}
			},
			"response": []
		},
		{
			"name": "Create New Song",
			"request": {
				"method": "POST",
				"header": [
					{
						"key": "Content-Type",
						"name": "Content-Type",
						"value": "application/json",
						"type": "text"
					}
				],
				"body": {
					"mode": "raw",
					"raw": "{\r\n    \"id\": null,\r\n    \"name\": \"Dark Saturday\",\r\n    \"album\": {\r\n        \"id\": 1,\r\n        \"name\": \"Art of Doubt\",\r\n        \"releaseYear\": 2018\r\n    },\r\n    \"band\": {\r\n        \"id\": 5,\r\n        \"name\": \"Metric\",\r\n        \"foundationYear\": 1998\r\n    },\r\n    \"duration\": 310\r\n}",
					"options": {
						"raw": {
							"language": "json"
						}
					}
				},
				"url": {
					"raw": "http://localhost:3333/song-system/songs",
					"protocol": "http",
					"host": [
						"localhost"
					],
					"port": "3333",
					"path": [
						"song-system",
						"songs"
					]
				}
			},
			"response": []
		},
		{
			"name": "Update Song with id#4",
			"request": {
				"method": "PUT",
				"header": [
					{
						"key": "Content-Type",
						"name": "Content-Type",
						"value": "application/json",
						"type": "text"
					}
				],
				"body": {
					"mode": "raw",
					"raw": "{\r\n    \"id\": 4,\r\n    \"name\": \"Sledgehammer\",\r\n    \"album\": {\r\n        \"id\": 4,\r\n        \"name\": \"Manipulator\",\r\n        \"releaseYear\": 2007\r\n    },\r\n    \"band\": {\r\n        \"id\": 4,\r\n        \"name\": \"The Fall of Troy\",\r\n        \"foundationYear\": 2002\r\n    },\r\n    \"duration\": 315\r\n}",
					"options": {
						"raw": {
							"language": "json"
						}
					}
				},
				"url": {
					"raw": "http://localhost:3333/song-system/songs",
					"protocol": "http",
					"host": [
						"localhost"
					],
					"port": "3333",
					"path": [
						"song-system",
						"songs"
					]
				},
				"description": "Change duration to 315 secs"
			},
			"response": []
		},
		{
			"name": "Delete Song with id#2",
			"request": {
				"method": "DELETE",
				"header": [
					{
						"key": "Content-Type",
						"name": "Content-Type",
						"value": "application/json",
						"type": "text"
					}
				],
				"body": {
					"mode": "raw",
					"raw": "{\r\n    \"id\": 4,\r\n    \"name\": \"Sledgehammer\",\r\n    \"album\": {\r\n        \"id\": 4,\r\n        \"name\": \"Manipulator\",\r\n        \"releaseYear\": 2007\r\n    },\r\n    \"band\": {\r\n        \"id\": 4,\r\n        \"name\": \"The Fall of Troy\",\r\n        \"foundationYear\": 2002\r\n    },\r\n    \"duration\": 315\r\n}",
					"options": {
						"raw": {
							"language": "json"
						}
					}
				},
				"url": {
					"raw": "http://localhost:3333/song-system/songs/2",
					"protocol": "http",
					"host": [
						"localhost"
					],
					"port": "3333",
					"path": [
						"song-system",
						"songs",
						"2"
					]
				}
			},
			"response": []
		},
		{
			"name": "Try to create new Song with non-null id",
			"request": {
				"method": "POST",
				"header": [
					{
						"key": "Content-Type",
						"name": "Content-Type",
						"value": "application/json",
						"type": "text"
					}
				],
				"body": {
					"mode": "raw",
					"raw": "{\r\n    \"id\": 7,\r\n    \"name\": \"Semi-Fiction\",\r\n    \"album\": {\r\n        \"id\": 4,\r\n        \"name\": \"Manipulator\",\r\n        \"releaseYear\": 2007\r\n    },\r\n    \"band\": {\r\n        \"id\": 4,\r\n        \"name\": \"The Fall of Troy\",\r\n        \"foundationYear\": 2002\r\n    },\r\n    \"duration\": 280\r\n}",
					"options": {
						"raw": {
							"language": "json"
						}
					}
				},
				"url": {
					"raw": "http://localhost:3333/song-system/songs",
					"protocol": "http",
					"host": [
						"localhost"
					],
					"port": "3333",
					"path": [
						"song-system",
						"songs"
					]
				},
				"description": "422 expected"
			},
			"response": []
		},
		{
			"name": "Try to update Song ",
			"request": {
				"method": "PUT",
				"header": [
					{
						"key": "Content-Type",
						"name": "Content-Type",
						"value": "application/json",
						"type": "text"
					}
				],
				"body": {
					"mode": "raw",
					"raw": "{\r\n    \"id\": null,\r\n    \"name\": \"Semi-Fiction\",\r\n    \"album\": {\r\n        \"id\": 4,\r\n        \"name\": \"Manipulator\",\r\n        \"releaseYear\": 2007\r\n    },\r\n    \"band\": {\r\n        \"id\": 4,\r\n        \"name\": \"The Fall of Troy\",\r\n        \"foundationYear\": 2002\r\n    },\r\n    \"duration\": 280\r\n}",
					"options": {
						"raw": {
							"language": "json"
						}
					}
				},
				"url": {
					"raw": "http://localhost:3333/song-system/songs",
					"protocol": "http",
					"host": [
						"localhost"
					],
					"port": "3333",
					"path": [
						"song-system",
						"songs"
					]
				},
				"description": "With object, that has null id. 404 expected"
			},
			"response": []
		},
		{
			"name": "Try to delete Song with non-existend id",
			"request": {
				"method": "DELETE",
				"header": [
					{
						"key": "Content-Type",
						"name": "Content-Type",
						"value": "application/json",
						"type": "text"
					}
				],
				"body": {
					"mode": "raw",
					"raw": "{\r\n    \"id\": null,\r\n    \"name\": \"Semi-Fiction\",\r\n    \"album\": {\r\n        \"id\": 4,\r\n        \"name\": \"Manipulator\",\r\n        \"releaseYear\": 2007\r\n    },\r\n    \"band\": {\r\n        \"id\": 4,\r\n        \"name\": \"The Fall of Troy\",\r\n        \"foundationYear\": 2002\r\n    },\r\n    \"duration\": 280\r\n}",
					"options": {
						"raw": {
							"language": "json"
						}
					}
				},
				"url": {
					"raw": "http://localhost:3333/song-system/songs/9",
					"protocol": "http",
					"host": [
						"localhost"
					],
					"port": "3333",
					"path": [
						"song-system",
						"songs",
						"9"
					]
				},
				"description": "404 expected"
			},
			"response": []
		}
	],
	"protocolProfileBehavior": {}
}